<?xml version="1.0" encoding="UTF-8" standalone="no"?>
<!-- Created with Inkscape (http://www.inkscape.org/) -->

<svg
   xmlns:dc="http://purl.org/dc/elements/1.1/"
   xmlns:cc="http://creativecommons.org/ns#"
   xmlns:rdf="http://www.w3.org/1999/02/22-rdf-syntax-ns#"
   xmlns:svg="http://www.w3.org/2000/svg"
   xmlns="http://www.w3.org/2000/svg"
   xmlns:sodipodi="http://sodipodi.sourceforge.net/DTD/sodipodi-0.dtd"
   xmlns:inkscape="http://www.inkscape.org/namespaces/inkscape"
   width="18.11751"
   height="17.077847"
   id="svg3545"
   version="1.1"
   inkscape:version="0.91 r"
   sodipodi:docname="hirondelle2.svg"
   inkscape:export-filename="/home/christophe/Téléchargements/guidelibreasorev20150922_17h00/versionbeautiful/images/hirondelle1.pdf"
   inkscape:export-xdpi="300"
   inkscape:export-ydpi="300">
  <defs
     id="defs3547" />
  <sodipodi:namedview
     id="base"
     pagecolor="#ffffff"
     bordercolor="#666666"
     borderopacity="1.0"
     inkscape:pageopacity="0.0"
     inkscape:pageshadow="2"
     inkscape:zoom="15.839192"
     inkscape:cx="-3.7181541"
     inkscape:cy="12.205924"
     inkscape:document-units="px"
     inkscape:current-layer="layer1"
     showgrid="false"
     fit-margin-top="0"
     fit-margin-left="0"
     fit-margin-right="0"
     fit-margin-bottom="0"
     inkscape:window-width="1630"
     inkscape:window-height="979"
     inkscape:window-x="4"
     inkscape:window-y="49"
     inkscape:window-maximized="0" />
  <metadata
     id="metadata3550">
    <rdf:RDF>
      <cc:Work
         rdf:about="">
        <dc:format>image/svg+xml</dc:format>
        <dc:type
           rdf:resource="http://purl.org/dc/dcmitype/StillImage" />
        <dc:title></dc:title>
      </cc:Work>
    </rdf:RDF>
  </metadata>
  <g
     inkscape:label="Calque 1"
     inkscape:groupmode="layer"
     id="layer1"
     transform="translate(-365.94124,-523.82326)">
    <path
       style="fill:#e7c1a7;fill-opacity:1;stroke:none"
       d="m 373.33149,523.82769 c -1.56075,-0.0431 -3.12333,0.22845 -4.46283,0.81887 0.17076,0.0189 0.33944,0.0548 0.51179,0.0819 -0.27489,0.10055 -0.54871,0.20357 -0.81887,0.32755 0.13828,0.009 0.27099,0.0262 0.40944,0.0409 -0.0463,0.12455 0.0616,0.24487 0.30707,0.32755 0.18472,0.0622 0.40901,0.0967 0.67556,0.10237 0.006,0.15609 0.14748,0.3021 0.40943,0.40943 0.22131,0.0906 0.48961,0.12747 0.75746,0.12282 -0.0361,0.17755 0.11115,0.36912 0.40944,0.49133 0.26353,0.10797 0.60607,0.14916 0.92123,0.12282 0.0364,0.13275 0.16397,0.25585 0.38896,0.34802 0.26333,0.1079 0.58587,0.14892 0.90076,0.12283 -0.12584,0.2074 0.0111,0.44726 0.36848,0.59368 0.19896,0.0815 0.43433,0.11847 0.67557,0.12284 0.1227,0.62612 0.36298,1.31788 0.69604,2.02669 -0.24866,0.35029 -0.47455,0.708 -0.63462,1.0236 l -7.5336,1.96529 c -0.014,0.003 -0.027,0.0174 -0.0409,0.0205 l -1.33066,0.30708 c 0.68428,0.0316 1.64078,-0.16171 2.64085,-0.38896 0.61846,-0.13645 1.30329,-0.29349 1.96528,-0.45038 1.69963,-0.36772 3.32181,-0.59305 4.1353,0.0614 0.27127,1.56215 -2.23547,4.5029 -3.56208,6.20293 -0.5833,0.74749 -0.9955,1.29964 -0.73698,1.31018 l 0.34802,-0.49131 c 0.006,7.9e-4 0.0128,-2.3e-4 0.0205,0 l 5.38406,-6.67379 0.0205,0 c 0.3388,-0.0228 0.71875,-0.0845 1.10548,-0.16377 0.56599,0.65001 1.14803,1.18577 1.71963,1.55585 0.0407,0.15101 0.0882,0.29911 0.12283,0.45039 -0.0779,0.2013 -0.1374,0.42154 -0.14331,0.61415 -0.006,0.21916 0.0556,0.37706 0.14331,0.47084 -0.10238,0.23151 -0.17734,0.47074 -0.18425,0.69604 -0.009,0.28109 0.0864,0.46282 0.22518,0.53226 -0.16035,0.28282 -0.2776,0.62775 -0.2866,0.92123 -0.006,0.1761 0.0241,0.31282 0.0819,0.40943 -0.0908,0.21761 -0.13686,0.44485 -0.1433,0.6551 -0.006,0.2237 0.0316,0.39851 0.12283,0.49132 -0.0944,0.23128 -0.14635,0.4511 -0.16377,0.63462 -0.0227,0.23903 0.0291,0.36412 0.1433,0.38898 -0.053,0.16194 -0.10248,0.31289 -0.16378,0.47084 0.25373,-0.21909 0.48739,-0.43889 0.71651,-0.67556 -0.0264,0.0886 -0.055,0.17717 -0.0819,0.26613 -0.009,0.0269 -0.0117,0.0551 -0.0205,0.0819 3.21262,-2.85491 4.83681,-7.65473 2.43614,-11.15709 0.10946,-0.0569 0.21905,-0.11383 0.32755,-0.18425 0.8591,-0.55753 1.31038,-1.43306 1.12595,-2.08811 l 0.81886,-0.88029 -1.12594,0.38897 c -0.5234,-0.43432 -1.51619,-0.37292 -2.37472,0.18424 -0.0908,0.059 -0.16566,0.12342 -0.24566,0.18424 -1.33469,-2.02898 -4.14454,-3.11517 -6.98086,-3.19358 z"
       id="path7226"
       inkscape:connector-curvature="0" />
  </g>
</svg>
